^C:\USERS\DAMJAN\INTERFACE PROJECTS\KETTLER_IMPORT_NEWII GREMERCY\FORM1.RESX|C:\USERS\DAMJAN\INTERFACE PROJECTS\KETTLER_IMPORT_NEWII GREMERCY\MY PROJECT\RESOURCES.RESX
C:\USERS\DAMJAN\INTERFACE PROJECTS\KETTLER_IMPORT_NEWII GREMERCY\OBJ\RELEASE\KETTLER_IMPORT.FORM1.RESOURCES
C:\USERS\DAMJAN\INTERFACE PROJECTS\KETTLER_IMPORT_NEWII GREMERCY\OBJ\RELEASE\KETTLER_IMPORT.RESOURCES.RESOURCES
^C:\USERS\DAMJAN\INTERFACE PROJECTS\KETTLER_IMPORT_NEWII PALATINE\FORM1.RESX|C:\USERS\DAMJAN\INTERFACE PROJECTS\KETTLER_IMPORT_NEWII PALATINE\MY PROJECT\RESOURCES.RESX
C:\USERS\DAMJAN\INTERFACE PROJECTS\KETTLER_IMPORT_NEWII PALATINE\OBJ\RELEASE\KETTLER_IMPORT.FORM1.RESOURCES
C:\USERS\DAMJAN\INTERFACE PROJECTS\KETTLER_IMPORT_NEWII PALATINE\OBJ\RELEASE\KETTLER_IMPORT.RESOURCES.RESOURCES
^C:\USERS\DAMJAN\INTERFACE PROJECTS\KETTLER_IMPORT_NEWII CRESCENT NINTH\FORM1.RESX|C:\USERS\DAMJAN\INTERFACE PROJECTS\KETTLER_IMPORT_NEWII CRESCENT NINTH\MY PROJECT\RESOURCES.RESX
C:\USERS\DAMJAN\INTERFACE PROJECTS\KETTLER_IMPORT_NEWII CRESCENT NINTH\OBJ\RELEASE\KETTLER_IMPORT.FORM1.RESOURCES
C:\USERS\DAMJAN\INTERFACE PROJECTS\KETTLER_IMPORT_NEWII CRESCENT NINTH\OBJ\RELEASE\KETTLER_IMPORT.RESOURCES.RESOURCES
