{
  "items" : [
    {
      "title": "<a href='/events.html'>FARM MARKET BRUNCH</a>",
      "img": "/assets/img/events/event_02.png",
      "alt" : "FARM MARKET BRUNCH",
      "description": "Farmers Fishers Bakers brunch <br>every weekend! With a diverse <br>menu of the American farm at the <br>table and fresh dishes.<br><span class='more-less'>Read more ...</span><br><span class='swipe'>Please swipe to see more events.</span>"
    },
    {
      "title": "<a href='/events.html'>WEEKEND BRUNCH</a>",
      "img": "/assets/img/events/event_03.png",
      "alt" : "WEEKEND BRUNCH",
      "description": "Join us for a delicious, weekend <br>brunch at Fiola Mare along the <br>Potomac River at The Washington <br>Harbour.<br><span class='more-less'>Read more ...</span><br><span class='swipe'>Please swipe to see more events.</span>"
    },
    {
      "title": "<a href='/events.html'>First Annual Shamrock Oyster Shuck at Orange Anchor</a>",
      "img": "/assets/img/events/event-08.png",
      "alt" : "Orange Anchor",
      "description": "Enjoy St. Patrick’s Day fun with all you can drink champagne and canned beer (with a koozie!), all you can eat oysters, giveaways, swag and more! $75 tickets ($60 early bird). Rain or shine.<br><span class='more-less'>Read more ...</span><br><span class='swipe'>Please swipe to see more events.</span>"
    }
  ]
}