﻿
<div id="map_canvas" class="LatLng39.214536_-76.867363"></div>

<div id="map_cats">
    <div id="mapConvenience">



<p id="LatLng39.214034_-76.856312">
<span>
<strong>
Whole Foods
</strong>
<br />
10275 Little Patuxent Pkwy
<br />
Columbia, MD 21044
</span>
</p>



<p id="LatLng39.216029_-76.860202">
<span>
<strong>
Columbia Mall
</strong>
<br />
10300 Little Patuxent Pkwy
<br />
 Columbia, MD 21044 
</span>
</p>



       
    </div>
    <div id="mapDining">




<p id="LatLng39.216029_-76.865202">
<span>
<strong>
The Cheesecake Factory
</strong>
<br />
<span>
10300 Little Patuxent Pkwy
<br />
 Columbia, MD 21044 
</span>
</p>

<p id="LatLng39.216539_-76.860612">
<span>
<strong>
PF Chang's
</strong>
<br />
<span>
10300 Little Patuxent Pkwy
<br />
 Columbia, MD 21044 
</span>
</p>


<p id="LatLng39.216029_-76.863202">
<span>
<strong>
Maggiano's
</strong>
<br />
<span>
10300 Little Patuxent Pkwy
<br />
 Columbia, MD 21044 
</span>
</p>

<p id="LatLng39.215529_-76.861112">
<span>
<strong>
Seasons 52
</strong>
<br />
<span>
10300 Little Patuxent Pkwy
<br />
 Columbia, MD 21044 
</span>
</p>

<p id="LatLng39.216048_-76.857096">
<span>
<strong>
Clyde's
</strong>
<br />
<span>
10221 Wincopin Cir
<br />
Columbia, MD 21044
</span>
</p>




    </div>
    <div id="mapServices">



<p id="LatLng39.215417_-76.854078">
<span>
<strong>
Lake Kittamaqundi
</strong>
<br />
<span>

<br />
Columbia, MD
</span>
</span>
</p>


<p id="LatLng39.209855_-76.861286">
<span>
<strong>
Symphony Woods Park
</strong>
<br />
<span>

<br />
Columbia, MD
</span>
</span>
</p>



<p id="LatLng39.208771_-76.862779">
<span>
<strong>
Merriweather Post Pavilion
</strong>
<br />
<span>

<br />
Columbia, MD
</span>
</span>
</p>


<p id="LatLng39.223936_-76.858763">
<span>
<strong>
Wilde Lake Park
</strong>
<br />
<span>

<br />
Columbia, MD
</span>
</span>
</p>

    </div>
    <div id="mapHistoric">



<p id="LatLng39.214453_-76.865265">
<span>
<strong>
Howard Transit
</strong>
<br />
<span>
Mall Connector Rd
<br />
Columbia, MD
</span>
</span>
</p>


<p id="LatLng39.215417_-76.850078">
<span>
<strong>
Route 29
</strong>
<br />
<span>

</span>
</span>
</p>





    </div>
</div>
