^C:\USERS\DAMJAN\INTERFACE PROJECTS\KETTLER_IMPORT_NEWII GREMERCY\FORM1.RESX|C:\USERS\DAMJAN\INTERFACE PROJECTS\KETTLER_IMPORT_NEWII GREMERCY\MY PROJECT\RESOURCES.RESX
C:\USERS\DAMJAN\INTERFACE PROJECTS\KETTLER_IMPORT_NEWII GREMERCY\OBJ\RELEASE\KETTLER_IMPORT.FORM1.RESOURCES
C:\USERS\DAMJAN\INTERFACE PROJECTS\KETTLER_IMPORT_NEWII GREMERCY\OBJ\RELEASE\KETTLER_IMPORT.RESOURCES.RESOURCES
