^C:\PROJECTS\KETTLER_IMPORT_NEWII\FORM1.RESX
^C:\PROJECTS\KETTLER_IMPORT_NEWII\MY PROJECT\RESOURCES.RESX
^C:\USERS\DAMJAN\INTERFACE PROJECTS\WCSMITH_IMPORT\FORM1.RESX
^C:\USERS\DAMJAN\INTERFACE PROJECTS\WCSMITH_IMPORT\MY PROJECT\RESOURCES.RESX
C:\WINDOWS\MICROSOFT.NET\FRAMEWORK64\V2.0.50727\CONFIG\SECURITY.CONFIG
C:\WINDOWS\MICROSOFT.NET\FRAMEWORK64\V2.0.50727\CONFIG\ENTERPRISESEC.CONFIG
