﻿
<div id="map_canvas" class="LatLng38.961700_-77.356968"></div>

<div id="map_cats">
    <div id="mapConvenience">



<p id="LatLng38.958631_-77.357003">
<span>
<strong>
Whole Foods
</strong>
<br />
11660 Plaza America Dr
<br />
Reston, VA 20190
</span>
</p>

<p id="LatLng38.967370_-77.359039">
<span>
<strong>
Trader Joes
</strong>
<br />
11958 Killingsworth Ave
<br />
Reston, VA 20190
</span>
</p>

<p id="LatLng38.965727_-77.354735">
<span>
<strong>
Harris Teeter
</strong>
<br />
11806 Spectrum Center
<br />
Reston, VA 20190
</span>
</p>

<p id="LatLng38.958703_-77.358201">
<span>
<strong>
Apple Store
</strong>
<br />
11949 Market St
<br />
Reston, VA 20190
</span>
</p>

<p id="LatLng38.958697_-77.356888">
<span>
<strong>
William and Sonoma
</strong>
<br />
11897 Market St
<br />
Reston, VA 20190
</span>
</p>

<p id="LatLng38.958697_-77.356888">
<span>
<strong>
William and Sonoma
</strong>
<br />
11897 Market St
<br />
Reston, VA 20190
</span>
</p>

<p id="LatLng38.958602_-77.358107">
<span>
<strong>
Pottery Barn
</strong>
<br />
11937 Market St
<br />
Reston, VA 20190
</span>
</p>

<p id="LatLng38.958703_-77.358233">
<span>
<strong>
J Crew
</strong>
<br />
11953 Market St
<br />
Reston, VA 20190
</span>
</p>



       
    </div>
    <div id="mapDining">




<p id="LatLng38.958731_-77.358239">
<span>
<strong>
Morton's Steakhouse
</strong>
<br />
<span>
11956 Market Street 
<br />
 Reston, VA 20190
</span>
</p>

<p id="LatLng38.957903_-77.357628">
<span>
<strong>
McCormick & Schmicks
</strong>
<br />
<span>
11920 Democracy Dr
<br />
Reston, VA 20190
</span>
</p>

<p id="LatLng38.957876_-77.358350">
<span>
<strong>
Sweetgreen
</strong>
<br />
<span>
11935 Democracy Dr
<br />
Reston, VA 20190
</span>
</p>

<p id="LatLng38.958983_-77.356700">
<span>
<strong>
Paolo's
</strong>
<br />
<span>
11898 Market St
<br />
 Reston, VA 20190
</span>
</p>

<p id="LatLng38.957715_-77.358325">
<span>
<strong>
Uncle Julios
</strong>
<br />
<span>
1827 Library St
<br />
Reston, VA 20190
</span>
</p>

<p id="LatLng38.959008_-77.359275">
<span>
<strong>
Starbucks
</strong>
<br />
<span>
11951 Freedom Drive 
<br />
Reston, VA 20190
</span>
</p>

<p id="LatLng38.958697_-77.357043">
<span>
<strong>
Clyde’s 
</strong>
<br />
<span>
11905 Market St  
<br />
Reston, VA 20190
</span>
</p>

<p id="LatLng38.958631_-77.357003">
<span>
<strong>
American Tap Room 
</strong>
<br />
<span>
1811 Library St 
<br />
Reston, VA 20190
</span>
</span>
</p>

    </div>
    <div id="mapServices">


<p id="LatLng38.960417_-77.366671">
<span>
<strong>
Lake Fairfax
</strong>
<br />
<span>

<br />‎
Reston, VA 20190
</span>
</span>
</p>

<p id="LatLng38.957235_-77.354742">
<span>
<strong>
W/O Trail
</strong>
<br />
<span>
W/O Trail
<br />
Reston, VA 20190
</span>
</span>
</p>

<p id="LatLng38.958631_-77.357003">
<span>
<strong>
Bow Tie Cinema
</strong>
<br />
<span>
11940 Market St
<br />
Reston, VA 20190
</span>
</span>
</p>





    </div>
    <div id="mapHistoric">



<p id="LatLng38.956923_-77.359385">
<span>
<strong>
Reston Transit Station
</strong>
<br />
<span>
12051 Bluemont Way
<br />
Reston, VA 20190
</span>
</span>
</p>

<p id="LatLng38.955080_-77.355376">
<span>
<strong>
Dulles Toll Road
</strong>
<br />
<span>

<br />
Reston, VA 20190
</span>
</span>
</p>

<p id="LatLng38.956923_-77.356085">
<span>
<strong>
Future Metro Rail stop
</strong>
<br />

<br />
Reston, VA 20190
</span>
</span>
</p>



    </div>
</div>
