^C:\USERS\DAMJAN\INTERFACE PROJECTS\IDAM DELETE REF ASSETS\FORM1.RESX
^C:\USERS\DAMJAN\INTERFACE PROJECTS\IDAM DELETE REF ASSETS\MY PROJECT\RESOURCES.RESX
^C:\USERS\DAMJAN\INTERFACE PROJECTS\IDAM DELETE DUP ASSETS\FORM1.RESX
^C:\USERS\DAMJAN\INTERFACE PROJECTS\IDAM DELETE DUP ASSETS\MY PROJECT\RESOURCES.RESX
