^C:\USERS\DAMJAN\INTERFACE PROJECTS\KETTLER_IMPORT_NEWII GREMERCY\FORM1.RESX
^C:\USERS\DAMJAN\INTERFACE PROJECTS\KETTLER_IMPORT_NEWII GREMERCY\MY PROJECT\RESOURCES.RESX
C:\WINDOWS\MICROSOFT.NET\FRAMEWORK64\V2.0.50727\CONFIG\SECURITY.CONFIG
C:\WINDOWS\MICROSOFT.NET\FRAMEWORK64\V2.0.50727\CONFIG\ENTERPRISESEC.CONFIG
^C:\USERS\DAMJAN\INTERFACE PROJECTS\KETTLER_IMPORT_NEWII PALATINE\FORM1.RESX
^C:\USERS\DAMJAN\INTERFACE PROJECTS\KETTLER_IMPORT_NEWII PALATINE\MY PROJECT\RESOURCES.RESX
C:\WINDOWS\MICROSOFT.NET\FRAMEWORK64\V2.0.50727\CONFIG\SECURITY.CONFIG
C:\WINDOWS\MICROSOFT.NET\FRAMEWORK64\V2.0.50727\CONFIG\ENTERPRISESEC.CONFIG
^C:\USERS\DAMJAN\INTERFACE PROJECTS\KETTLER_IMPORT_NEWII CRESCENT NINTH\FORM1.RESX
^C:\USERS\DAMJAN\INTERFACE PROJECTS\KETTLER_IMPORT_NEWII CRESCENT NINTH\MY PROJECT\RESOURCES.RESX
C:\WINDOWS\MICROSOFT.NET\FRAMEWORK64\V2.0.50727\CONFIG\SECURITY.CONFIG
C:\WINDOWS\MICROSOFT.NET\FRAMEWORK64\V2.0.50727\CONFIG\ENTERPRISESEC.CONFIG
^C:\USERS\DAMJAN\INTERFACE PROJECTS\KETTLER_IMPORT_NEWII CAMERON\FORM1.RESX
^C:\USERS\DAMJAN\INTERFACE PROJECTS\KETTLER_IMPORT_NEWII CAMERON\MY PROJECT\RESOURCES.RESX
C:\WINDOWS\MICROSOFT.NET\FRAMEWORK64\V2.0.50727\CONFIG\SECURITY.CONFIG
C:\WINDOWS\MICROSOFT.NET\FRAMEWORK64\V2.0.50727\CONFIG\ENTERPRISESEC.CONFIG
